…
    ## # A tibble: 108 × 9
    ## # Groups:   Caterpillar_species, Tree_species [38]
    ##    Caterpillar_species Tree_species  Para Not_Para H_Para Not_H T_Para Not_T
    ##    <fct>               <fct>        <int>    <int>  <int> <int>  <int> <int>
    ##  1 Achatia distincta   BC               1       12      1    12      0    13
    ##  2 Achatia distincta   BC               3        5      1     7      2     6
    ##  3 Achatia distincta   HI               2        6      1     7      1     7
    ##  4 Achatia distincta   HI               5        7      4     8      1    11
    ##  5 Achatia distincta   RO               2        9      1    10      1    10
    ##  6 Achatia distincta   RO               3        7      1     9      2     8
    ##  7 Achatia distincta   WO               0        5      0     5      0     5
    ##  8 Achatia distincta   WO               0       11      0    11      0    11
    ##  9 Ennomos subsignaria HI               0        6      0     6      0     6
    ## 10 Ennomos subsignaria HI               1        5      0     6      1     5
    ## # ℹ 98 more rows
    ## # ℹ 1 more variable: total_para <int>
    ## [1] 314
    ## [1] 2511
…
